
{
  "header": {
    "reportVersion": 1,
    "event": "Allocation failed - JavaScript heap out of memory",
    "trigger": "FatalError",
    "filename": "report.20201210.072501.9626.0.001.json",
    "dumpEventTime": "2020-12-10T07:25:01Z",
    "dumpEventTimeStamp": "1607585101108",
    "processId": 9626,
    "cwd": "/home/mbartolac/Workspace/javascript/aoc-2020/day10",
    "commandLine": [
      "node",
      "advent-ov-code-2020-10-2.js"
    ],
    "nodejsVersion": "v12.13.1",
    "glibcVersionRuntime": "2.32",
    "glibcVersionCompiler": "2.17",
    "wordSize": 64,
    "arch": "x64",
    "platform": "linux",
    "componentVersions": {
      "node": "12.13.1",
      "v8": "7.7.299.13-node.16",
      "uv": "1.33.1",
      "zlib": "1.2.11",
      "brotli": "1.0.7",
      "ares": "1.15.0",
      "modules": "72",
      "nghttp2": "1.39.2",
      "napi": "5",
      "llhttp": "1.1.4",
      "http_parser": "2.8.0",
      "openssl": "1.1.1d",
      "cldr": "35.1",
      "icu": "64.2",
      "tz": "2019c",
      "unicode": "12.1"
    },
    "release": {
      "name": "node",
      "lts": "Erbium",
      "headersUrl": "https://nodejs.org/download/release/v12.13.1/node-v12.13.1-headers.tar.gz",
      "sourceUrl": "https://nodejs.org/download/release/v12.13.1/node-v12.13.1.tar.gz"
    },
    "osName": "Linux",
    "osRelease": "5.9.12-arch1-1",
    "osVersion": "#1 SMP PREEMPT Wed, 02 Dec 2020 16:14:56 +0000",
    "osMachine": "x86_64",
    "cpus": [
      {
        "model": "Intel(R) Core(TM) i7-8650U CPU @ 1.90GHz",
        "speed": 3067,
        "user": 2186600,
        "nice": 16800,
        "sys": 646000,
        "idle": 55620400,
        "irq": 91900
      },
      {
        "model": "Intel(R) Core(TM) i7-8650U CPU @ 1.90GHz",
        "speed": 3071,
        "user": 2247100,
        "nice": 17200,
        "sys": 589400,
        "idle": 55558400,
        "irq": 83000
      },
      {
        "model": "Intel(R) Core(TM) i7-8650U CPU @ 1.90GHz",
        "speed": 3090,
        "user": 2453800,
        "nice": 42700,
        "sys": 633900,
        "idle": 55390700,
        "irq": 61900
      },
      {
        "model": "Intel(R) Core(TM) i7-8650U CPU @ 1.90GHz",
        "speed": 2912,
        "user": 2325600,
        "nice": 64400,
        "sys": 625200,
        "idle": 55505100,
        "irq": 61300
      },
      {
        "model": "Intel(R) Core(TM) i7-8650U CPU @ 1.90GHz",
        "speed": 3086,
        "user": 2243400,
        "nice": 20700,
        "sys": 567700,
        "idle": 55540200,
        "irq": 93800
      },
      {
        "model": "Intel(R) Core(TM) i7-8650U CPU @ 1.90GHz",
        "speed": 3057,
        "user": 2113800,
        "nice": 12500,
        "sys": 633400,
        "idle": 55553400,
        "irq": 150100
      },
      {
        "model": "Intel(R) Core(TM) i7-8650U CPU @ 1.90GHz",
        "speed": 3084,
        "user": 2264900,
        "nice": 14000,
        "sys": 566000,
        "idle": 55678300,
        "irq": 57900
      },
      {
        "model": "Intel(R) Core(TM) i7-8650U CPU @ 1.90GHz",
        "speed": 3069,
        "user": 2460800,
        "nice": 54500,
        "sys": 588900,
        "idle": 55438300,
        "irq": 58100
      }
    ],
    "networkInterfaces": [
      {
        "name": "lo",
        "internal": true,
        "mac": "00:00:00:00:00:00",
        "address": "127.0.0.1",
        "netmask": "255.0.0.0",
        "family": "IPv4"
      },
      {
        "name": "wlp3s0",
        "internal": false,
        "mac": "d4:6d:6d:fe:b3:6b",
        "address": "10.10.6.170",
        "netmask": "255.255.240.0",
        "family": "IPv4"
      },
      {
        "name": "lo",
        "internal": true,
        "mac": "00:00:00:00:00:00",
        "address": "::1",
        "netmask": "ffff:ffff:ffff:ffff:ffff:ffff:ffff:ffff",
        "family": "IPv6",
        "scopeid": 0
      },
      {
        "name": "wlp3s0",
        "internal": false,
        "mac": "d4:6d:6d:fe:b3:6b",
        "address": "fe80::38fb:c06d:a80a:67f0",
        "netmask": "ffff:ffff:ffff:ffff::",
        "family": "IPv6",
        "scopeid": 3
      }
    ],
    "host": "uranus"
  },
  "javascriptStack": {
    "message": "No stack.",
    "stack": [
      "Unavailable."
    ]
  },
  "nativeStack": [
    {
      "pc": "0x0000000000b04935",
      "symbol": "report::TriggerNodeReport(v8::Isolate*, node::Environment*, char const*, char const*, std::string const&, v8::Local<v8::String>) [node]"
    },
    {
      "pc": "0x00000000009db9e3",
      "symbol": "node::OnFatalError(char const*, char const*) [node]"
    },
    {
      "pc": "0x0000000000b39f1e",
      "symbol": "v8::Utils::ReportOOMFailure(v8::internal::Isolate*, char const*, bool) [node]"
    },
    {
      "pc": "0x0000000000b3a299",
      "symbol": "v8::internal::V8::FatalProcessOutOfMemory(v8::internal::Isolate*, char const*, bool) [node]"
    },
    {
      "pc": "0x0000000000ce5635",
      "symbol": " [node]"
    },
    {
      "pc": "0x0000000000ce5cc6",
      "symbol": "v8::internal::Heap::RecomputeLimits(v8::internal::GarbageCollector) [node]"
    },
    {
      "pc": "0x0000000000cf1b5a",
      "symbol": "v8::internal::Heap::PerformGarbageCollection(v8::internal::GarbageCollector, v8::GCCallbackFlags) [node]"
    },
    {
      "pc": "0x0000000000cf2a65",
      "symbol": "v8::internal::Heap::CollectGarbage(v8::internal::AllocationSpace, v8::internal::GarbageCollectionReason, v8::GCCallbackFlags) [node]"
    },
    {
      "pc": "0x0000000000cf5478",
      "symbol": "v8::internal::Heap::AllocateRawWithRetryOrFail(int, v8::internal::AllocationType, v8::internal::AllocationAlignment) [node]"
    },
    {
      "pc": "0x0000000000cbbda7",
      "symbol": "v8::internal::Factory::NewFillerObject(int, bool, v8::internal::AllocationType) [node]"
    },
    {
      "pc": "0x0000000000ff1f69",
      "symbol": "v8::internal::Runtime_AllocateInOldGeneration(int, unsigned long*, v8::internal::Isolate*) [node]"
    },
    {
      "pc": "0x0000000001374fd9",
      "symbol": " [node]"
    }
  ],
  "javascriptHeap": {
    "totalMemory": 2159607808,
    "totalCommittedMemory": 2152841800,
    "usedMemory": 2148727880,
    "availableMemory": 46382072,
    "memoryLimit": 2197815296,
    "heapSpaces": {
      "read_only_space": {
        "memorySize": 262144,
        "committedMemory": 32568,
        "capacity": 261872,
        "used": 32296,
        "available": 229576
      },
      "new_space": {
        "memorySize": 8388608,
        "committedMemory": 2354000,
        "capacity": 4189952,
        "used": 667288,
        "available": 3522664
      },
      "old_space": {
        "memorySize": 2150215680,
        "committedMemory": 2149960112,
        "capacity": 2147918720,
        "used": 2147686328,
        "available": 232392
      },
      "code_space": {
        "memorySize": 425984,
        "committedMemory": 195264,
        "capacity": 159776,
        "used": 159776,
        "available": 0
      },
      "map_space": {
        "memorySize": 266240,
        "committedMemory": 250704,
        "capacity": 178640,
        "used": 178640,
        "available": 0
      },
      "large_object_space": {
        "memorySize": 0,
        "committedMemory": 0,
        "capacity": 0,
        "used": 0,
        "available": 0
      },
      "code_large_object_space": {
        "memorySize": 49152,
        "committedMemory": 49152,
        "capacity": 3552,
        "used": 3552,
        "available": 0
      },
      "new_large_object_space": {
        "memorySize": 0,
        "committedMemory": 0,
        "capacity": 4189952,
        "used": 0,
        "available": 4189952
      }
    }
  },
  "resourceUsage": {
    "userCpuSeconds": 41.4701,
    "kernelCpuSeconds": 1.49165,
    "cpuConsumptionPercent": 358.015,
    "maxRss": 2227101696,
    "pageFaults": {
      "IORequired": 0,
      "IONotRequired": 596262
    },
    "fsActivity": {
      "reads": 0,
      "writes": 0
    }
  },
  "uvthreadResourceUsage": {
    "userCpuSeconds": 11.1296,
    "kernelCpuSeconds": 0.507077,
    "cpuConsumptionPercent": 96.9723,
    "fsActivity": {
      "reads": 0,
      "writes": 0
    }
  },
  "libuv": [
  ],
  "environmentVariables": {
    "SHELL": "/usr/bin/zsh",
    "SESSION_MANAGER": "local/uranus:@/tmp/.ICE-unix/2223,unix/uranus:/tmp/.ICE-unix/2223",
    "XDG_MENU_PREFIX": "gnome-",
    "FONTCONFIG_PATH": "/etc/fonts",
    "SSH_AUTH_SOCK": "/run/user/1000/keyring/ssh",
    "GRADLE_HOME": "/usr/share/java/gradle",
    "DESKTOP_SESSION": "gnome",
    "LC_MONETARY": "hr_HR.UTF-8",
    "PWD": "/home/mbartolac/Workspace/javascript/aoc-2020/day10",
    "LOGNAME": "mbartolac",
    "XDG_SESSION_DESKTOP": "gnome",
    "XDG_SESSION_TYPE": "wayland",
    "XAUTHORITY": "/run/user/1000/.mutter-Xwaylandauth.Y4TJV0",
    "GJS_DEBUG_TOPICS": "JS ERROR;JS LOG",
    "MOTD_SHOWN": "pam",
    "GDM_LANG": "en_US.UTF-8",
    "HOME": "/home/mbartolac",
    "USERNAME": "mbartolac",
    "LANG": "en_US.UTF-8",
    "LC_PAPER": "hr_HR.UTF-8",
    "XDG_CURRENT_DESKTOP": "GNOME",
    "WAYLAND_DISPLAY": "wayland-0",
    "INVOCATION_ID": "043af9d9ddcb4cecb9131d0e13c46b53",
    "MANAGERPID": "2160",
    "GJS_DEBUG_OUTPUT": "stderr",
    "GNOME_SETUP_DISPLAY": ":1",
    "XDG_SESSION_CLASS": "user",
    "USER": "mbartolac",
    "DISPLAY": ":0",
    "SHLVL": "2",
    "LC_MEASUREMENT": "hr_HR.UTF-8",
    "XDG_RUNTIME_DIR": "/run/user/1000",
    "LC_TIME": "hr_HR.UTF-8",
    "JOURNAL_STREAM": "8:27984",
    "XDG_DATA_DIRS": "/home/mbartolac/.local/share/flatpak/exports/share:/var/lib/flatpak/exports/share:/usr/local/share:/usr/share",
    "PATH": "/home/mbartolac/go/bin:/home/mbartolac/.nvm/versions/node/v12.13.1/bin:/usr/local/bin:/usr/local/sbin:/usr/bin:/var/lib/flatpak/exports/bin:/usr/lib/jvm/default/bin:/usr/bin/site_perl:/usr/bin/vendor_perl:/usr/bin/core_perl",
    "GDMSESSION": "gnome",
    "DBUS_SESSION_BUS_ADDRESS": "unix:path=/run/user/1000/bus",
    "MAIL": "/var/spool/mail/mbartolac",
    "GIO_LAUNCHED_DESKTOP_FILE_PID": "3625",
    "GIO_LAUNCHED_DESKTOP_FILE": "/usr/share/applications/VSCodium.desktop",
    "LC_NUMERIC": "hr_HR.UTF-8",
    "OLDPWD": "/home/mbartolac/Workspace/javascript/aoc-2020",
    "_": "/home/mbartolac/.nvm/versions/node/v12.13.1/bin/node",
    "APPLICATION_INSIGHTS_NO_DIAGNOSTIC_CHANNEL": "true",
    "CHROME_DESKTOP": "codium-url-handler.desktop",
    "ORIGINAL_XDG_CURRENT_DESKTOP": "GNOME",
    "NO_AT_BRIDGE": "1",
    "TERM_PROGRAM": "vscode",
    "TERM_PROGRAM_VERSION": "1.51.1",
    "COLORTERM": "truecolor",
    "VSCODE_GIT_IPC_HANDLE": "/run/user/1000/vscode-git-a8d0c4f3cc.sock",
    "GIT_ASKPASS": "/usr/share/vscodium-bin/resources/app/extensions/git/dist/askpass.sh",
    "VSCODE_GIT_ASKPASS_NODE": "/usr/share/vscodium-bin/codium",
    "VSCODE_GIT_ASKPASS_MAIN": "/usr/share/vscodium-bin/resources/app/extensions/git/dist/askpass-main.js",
    "TERM": "xterm-256color",
    "ZSH": "/home/mbartolac/.oh-my-zsh",
    "PAGER": "less",
    "LESS": "-R",
    "LSCOLORS": "Gxfxcxdxbxegedabagacad",
    "LS_COLORS": "rs=0:di=01;34:ln=01;36:mh=00:pi=40;33:so=01;35:do=01;35:bd=40;33;01:cd=40;33;01:or=40;31;01:mi=00:su=37;41:sg=30;43:ca=30;41:tw=30;42:ow=34;42:st=37;44:ex=01;32:*.tar=01;31:*.tgz=01;31:*.arc=01;31:*.arj=01;31:*.taz=01;31:*.lha=01;31:*.lz4=01;31:*.lzh=01;31:*.lzma=01;31:*.tlz=01;31:*.txz=01;31:*.tzo=01;31:*.t7z=01;31:*.zip=01;31:*.z=01;31:*.dz=01;31:*.gz=01;31:*.lrz=01;31:*.lz=01;31:*.lzo=01;31:*.xz=01;31:*.zst=01;31:*.tzst=01;31:*.bz2=01;31:*.bz=01;31:*.tbz=01;31:*.tbz2=01;31:*.tz=01;31:*.deb=01;31:*.rpm=01;31:*.jar=01;31:*.war=01;31:*.ear=01;31:*.sar=01;31:*.rar=01;31:*.alz=01;31:*.ace=01;31:*.zoo=01;31:*.cpio=01;31:*.7z=01;31:*.rz=01;31:*.cab=01;31:*.wim=01;31:*.swm=01;31:*.dwm=01;31:*.esd=01;31:*.jpg=01;35:*.jpeg=01;35:*.mjpg=01;35:*.mjpeg=01;35:*.gif=01;35:*.bmp=01;35:*.pbm=01;35:*.pgm=01;35:*.ppm=01;35:*.tga=01;35:*.xbm=01;35:*.xpm=01;35:*.tif=01;35:*.tiff=01;35:*.png=01;35:*.svg=01;35:*.svgz=01;35:*.mng=01;35:*.pcx=01;35:*.mov=01;35:*.mpg=01;35:*.mpeg=01;35:*.m2v=01;35:*.mkv=01;35:*.webm=01;35:*.webp=01;35:*.ogm=01;35:*.mp4=01;35:*.m4v=01;35:*.mp4v=01;35:*.vob=01;35:*.qt=01;35:*.nuv=01;35:*.wmv=01;35:*.asf=01;35:*.rm=01;35:*.rmvb=01;35:*.flc=01;35:*.avi=01;35:*.fli=01;35:*.flv=01;35:*.gl=01;35:*.dl=01;35:*.xcf=01;35:*.xwd=01;35:*.yuv=01;35:*.cgm=01;35:*.emf=01;35:*.ogv=01;35:*.ogx=01;35:*.aac=00;36:*.au=00;36:*.flac=00;36:*.m4a=00;36:*.mid=00;36:*.midi=00;36:*.mka=00;36:*.mp3=00;36:*.mpc=00;36:*.ogg=00;36:*.ra=00;36:*.wav=00;36:*.oga=00;36:*.opus=00;36:*.spx=00;36:*.xspf=00;36:",
    "NVM_DIR": "/home/mbartolac/.nvm",
    "NVM_CD_FLAGS": "-q",
    "NVM_BIN": "/home/mbartolac/.nvm/versions/node/v12.13.1/bin",
    "GOPATH": "/home/mbartolac/go",
    "GOBIN": "/home/mbartolac/go/bin"
  },
  "userLimits": {
    "core_file_size_blocks": {
      "soft": "unlimited",
      "hard": "unlimited"
    },
    "data_seg_size_kbytes": {
      "soft": "unlimited",
      "hard": "unlimited"
    },
    "file_size_blocks": {
      "soft": "unlimited",
      "hard": "unlimited"
    },
    "max_locked_memory_bytes": {
      "soft": 65536,
      "hard": 65536
    },
    "max_memory_size_kbytes": {
      "soft": "unlimited",
      "hard": "unlimited"
    },
    "open_files": {
      "soft": 524288,
      "hard": 524288
    },
    "stack_size_bytes": {
      "soft": 8388608,
      "hard": "unlimited"
    },
    "cpu_time_seconds": {
      "soft": "unlimited",
      "hard": "unlimited"
    },
    "max_user_processes": {
      "soft": 63459,
      "hard": 63459
    },
    "virtual_memory_kbytes": {
      "soft": "unlimited",
      "hard": "unlimited"
    }
  },
  "sharedObjects": [
    "linux-vdso.so.1",
    "/usr/lib/libdl.so.2",
    "/usr/lib/libstdc++.so.6",
    "/usr/lib/libm.so.6",
    "/usr/lib/libgcc_s.so.1",
    "/usr/lib/libpthread.so.0",
    "/usr/lib/libc.so.6",
    "/lib64/ld-linux-x86-64.so.2"
  ]
}